Visual Analytics - Visualising Geospatial Data
…
3.2 Wrangling with the data

The data set use for this hands-on exercise is called SGPools_svy21. The data is in csv file format.

Figure below shows the first 15 records of SGPools_svy21.csv. It consists of seven columns. The XCOORD and YCOORD columns are the x-coordinates and y-coordinates of SingPools outlets and branches. They are in Singapore SVY21 Projected Coordinates System.

The code chunk below uses read_csv() function of readr package to import SGPools_svy21.csv into R as a tibble data frame called sgpools.

sgpools <- read_csv("data/aspatial/SGPools_svy21.csv")

list(sgpools)

[[1]]
# A tibble: 306 × 7
   NAME           ADDRESS POSTCODE XCOORD YCOORD `OUTLET TYPE` `Gp1Gp2 Winnings`
   <chr>          <chr>      <dbl>  <dbl>  <dbl> <chr>                     <dbl>
 1 Livewire (Mar… 2 Bayf…    18972 30842. 29599. Branch                        5
 2 Livewire (Res… 26 Sen…    98138 26704. 26526. Branch                       11
 3 SportsBuzz (K… Lotus …   738078 20118. 44888. Branch                        0
 4 SportsBuzz (P… 1 Sele…   188306 29777. 31382. Branch                       44
 5 Prime Serango… Blk 54…   552542 32239. 39519. Branch                        0
 6 Singapore Poo… 1A Woo…   731001 21012. 46987. Branch                        3
 7 Singapore Poo… Blk 64…   370064 33990. 34356. Branch                       17
 8 Singapore Poo… Blk 88…   370088 33847. 33976. Branch                       16
 9 Singapore Poo… Blk 30…   540308 33910. 41275. Branch                       21
10 Singapore Poo… Blk 20…   560202 29246. 38943. Branch                       25
# ℹ 296 more rows
…
The coords argument requires you to provide the column name of the x-coordinates first then followed by the column name of the y-coordinates.

The crs argument required you to provide the coordinates system in epsg format. EPSG: 3414 is Singapore SVY21 Projected Coordinate System. You can search for other country’s epsg code by refering to epsg.io.

Notice that a new column called geometry has been added into the data frame.

list(sgpools_sf)

[[1]]
Simple feature collection with 306 features and 5 fields
Geometry type: POINT
Dimension:     XY
Bounding box:  xmin: 7844.194 ymin: 26525.7 xmax: 45176.57 ymax: 47987.13
Projected CRS: SVY21 / Singapore TM
# A tibble: 306 × 6
   NAME                         ADDRESS POSTCODE `OUTLET TYPE` `Gp1Gp2 Winnings`
 * <chr>                        <chr>      <dbl> <chr>                     <dbl>
 1 Livewire (Marina Bay Sands)  2 Bayf…    18972 Branch                        5
 2 Livewire (Resorts World Sen… 26 Sen…    98138 Branch                       11
 3 SportsBuzz (Kranji)          Lotus …   738078 Branch                        0
 4 SportsBuzz (PoMo)            1 Sele…   188306 Branch                       44
 5 Prime Serangoon North        Blk 54…   552542 Branch                        0
 6 Singapore Pools Woodlands C… 1A Woo…   731001 Branch                        3
 7 Singapore Pools 64 Circuit … Blk 64…   370064 Branch                       17
 8 Singapore Pools 88 Circuit … Blk 88…   370088 Branch                       16
 9 Singapore Pools Anchorvale … Blk 30…   540308 Branch                       21
10 Singapore Pools Ang Mo Kio … Blk 20…   560202 Branch                       25
# ℹ 296 more rows
# ℹ 1 more variable: geometry <POINT [m]>
…
